com/s4m/Entities/Mail/MailService.class
com/s4m/API/WebApi/DTO/UserUpdateRequest.class
com/s4m/StaticFilesConfig.class
com/s4m/Entities/SpaceType/SpaceTypeRepository.class
com/s4m/API/WebApi/DTO/EventCreateRequest.class
com/s4m/Entities/UserSession/UserSession.class
com/s4m/Common/BadRequestException.class
com/s4m/API/WebApi/Auth/UserAuthService.class
com/s4m/Background/ExchangeTask$EventHandler.class
com/s4m/API/WebApi/DTO/UserChangePasswordRequest.class
ecstaj/AccessViolationException.class
com/s4m/API/DeviceApi/Auth/DeviceAuthForbiddenException.class
com/s4m/RequestContext.class
com/s4m/Common/ConflictException.class
com/s4m/Common/EntityAlreadyExistsException.class
com/s4m/Entities/JpaConverterJson.class
com/s4m/Entities/DeviceActivation/DeviceActivationRepository.class
com/s4m/Background/ExchangeTaskActivator.class
com/s4m/API/WebApi/SpaceController.class
com/s4m/API/DeviceApi/Auth/DeviceAuthService.class
com/s4m/API/WebApi/MailController.class
com/s4m/Background/ExchangeTask$2$1.class
com/s4m/Common/NoAccessException.class
com/s4m/API/DeviceApi/DTO/PutSettingsRequest.class
ecstaj/NotSupportedException.class
com/s4m/API/WebApi/WebApiActivator.class
com/s4m/Entities/Device/DeviceRepository.class
com/s4m/SwaggerConfig.class
com/s4m/Entities/Image/ImageStorage.class
com/s4m/Background/EventTask.class
com/s4m/API/DeviceApi/DTO/StartPairingResponse.class
ecstaj/ArgumentInvalidException.class
com/s4m/Background/MailTaskActivator.class
com/s4m/API/WebApi/DeviceController.class
com/s4m/Entities/EventResource/EventResourceAttribute.class
com/s4m/Background/MailTask.class
com/s4m/Entities/Resource/ResourceRepository.class
com/s4m/TemplateConfiguration.class
com/s4m/Entities/Resource/ResourceAttribute.class
com/s4m/API/WebApi/DictController.class
com/s4m/Entities/User/Role.class
com/s4m/Common/StorageException.class
com/s4m/Entities/Event/Event.class
com/s4m/Entities/DeviceActivation/DeviceActivationConfirmRequest.class
com/s4m/API/WebApi/DTO/EventUpdateRequest.class
com/s4m/Entities/Mail/MailRepository.class
com/s4m/Entities/Location/Location.class
com/s4m/API/WebApi/DTO/DeviceUpdateRequest.class
com/s4m/API/WebApi/DTO/UserCreateRequest.class
com/s4m/API/WebApi/DTO/UserAuthLoginRequest.class
com/s4m/Entities/User/User.class
com/s4m/Entities/DeviceActivation/DeviceActivation.class
com/s4m/Entities/EventAttendee/EventAttendee.class
com/s4m/API/WebApi/SpaceTypeController.class
com/s4m/Background/ExchangeTask.class
com/s4m/Entities/Organization/Organization.class
com/s4m/Entities/Resource/Resource.class
com/s4m/API/WebApi/DTO/UserSetPasswordRequest.class
com/s4m/API/DeviceApi/DTO/ProlongCurrentEventRequest.class
com/s4m/API/WebApi/DTO/UserAuthResponse.class
com/s4m/Entities/SpaceType/SpaceType.class
com/s4m/Entities/Mail/Mail.class
com/s4m/API/DeviceApi/DTO/SpaceStatus.class
com/s4m/API/WebApi/AuthController.class
com/s4m/API/WebApi/Auth/UserAuthForbiddenException.class
com/s4m/Entities/Device/Device.class
com/s4m/API/WebApi/MailController$1.class
com/s4m/Entities/Timezone/TimezoneService.class
com/s4m/Entities/User/UserRepository.class
com/s4m/Entities/DeviceActivation/DeviceActivationService.class
com/s4m/Entities/User/RoleService.class
com/s4m/API/DeviceApi/DeviceApiEventService.class
com/s4m/API/WebApi/Auth/UserAuthException.class
com/s4m/Background/ExchangeTask$2.class
com/s4m/Entities/Timezone/Timezone.class
com/s4m/API/WebApi/DTO/EventAttendeeCreateRequest.class
com/s4m/Entities/SpaceSettings/SpaceSettings.class
com/s4m/Entities/Organization/OrganizationRepository.class
com/s4m/Entities/DeviceActivation/DeviceActivationRequestResult.class
com/s4m/Entities/Image/ImageRepository.class
com/s4m/Entities/UserSession/UserSessionRepository.class
com/s4m/API/WebApi/DTO/RoleAddRequest.class
com/s4m/Background/ExchangeIntegration$AppointmentEventHandler.class
com/s4m/Entities/User/RoleRepository.class
com/s4m/Entities/Location/LocationRepository.class
ecstaj/ArgumentFormatException.class
com/s4m/Entities/EventResource/EventResource.class
com/s4m/Entities/EventAttendee/EventAttendeeRepository.class
com/s4m/Entities/SpaceSettings/SpaceSettingsRepository.class
com/s4m/Entities/Image/Image.class
com/s4m/Entities/Space/SpaceRepository.class
com/s4m/Common/EntityNotFoundException.class
com/s4m/API/DeviceApi/DeviceApiController.class
com/s4m/Entities/User/UserService.class
com/s4m/AuthenticationFilter.class
ecstaj/OperationIllegalException.class
com/s4m/Background/BackgroundExecutor.class
com/s4m/Common/ForbiddenException.class
com/s4m/Entities/Exchange/ExchangeRepository.class
ecstaj/ArgumentEmptyException.class
com/s4m/API/DeviceApi/Auth/DeviceAuthException.class
com/s4m/Background/ExchangeTask$1.class
com/s4m/API/DeviceApi/DTO/StartNewEventRequest.class
com/s4m/Application.class
com/s4m/Background/EventTaskActivator.class
com/s4m/Entities/Space/Space.class
com/s4m/Entities/Image/ImageService.class
com/s4m/API/WebApi/ResourceController.class
ecstaj/NotImplementedException.class
com/s4m/Entities/Event/EventRepository.class
com/s4m/API/DeviceApi/DTO/OpStatusResponse.class
com/s4m/API/WebApi/LocationController.class
com/s4m/API/DeviceApi/DeviceApiActivator.class
com/s4m/API/WebApi/EventController.class
com/s4m/API/WebApi/OrganizationController.class
com/s4m/API/DeviceApi/DTO/GetStatusResponse.class
ecstaj/ArgumentRangeException.class
com/s4m/API/WebApi/UserController.class
com/s4m/Entities/Exchange/ExchangeSync.class
com/s4m/Background/ExchangeIntegration.class
com/s4m/Entities/Event/EventService.class
ecstaj/ArgumentNullException.class
